{
	"frontpage_link": {
		"en": "Metadata aggregator"
	},
	"header": {
		"en": "Aggregators"
	},
	"no_aggregators": {
		"en": "No aggregators defined in configuration."
	},
	"text": {
		"en": "text"
	}
}
